…
``` r
oldfaithful
#> # A tibble: 2,097 × 4
#>    time                recorded_duration duration waiting
#>    <dttm>              <chr>                <dbl>   <dbl>
#>  1 2017-01-14 00:06:00 3m 16s                 196    5940
#>  2 2017-01-26 14:27:00 ~4m                    240    5820
#>  3 2017-01-27 23:57:00 2m 1s                  121    3900
#>  4 2017-01-30 15:09:00 ~4m                    240    5280
#>  5 2017-01-31 13:27:00 ~3.5m                  210    5580
#>  6 2017-01-31 15:00:00 ~4m                    240    5760
#>  7 2017-02-03 23:13:00 3m 25s                 205    5160
#>  8 2017-02-04 22:14:00 3m 34s                 214    5400
#>  9 2017-02-05 17:19:00 4m 0s                  240    6060
#> 10 2017-02-05 19:00:00 4m 2s                  242    6060
#> # ℹ 2,087 more rows
```
…
The
[`surprisals()`](https://pkg.robjhyndman.com/weird/reference/surprisals.md)
function can also compute the probability of obtaining surprisal values
at least as extreme as those observed. In fact, this is the default
behaviour, obtained when `probability = TRUE`.

``` r
of |>
  mutate(
    surprisal = surprisals(cbind(duration, waiting), probability = FALSE),
    prob = surprisals(cbind(duration, waiting))
  ) |>
  arrange(prob)
#> # A tibble: 2,097 × 6
#>    time                recorded_duration       duration waiting surprisal     prob
#>    <dttm>              <chr>                      <dbl>   <dbl>     <dbl>    <dbl>
#>  1 2018-04-25 19:08:00 1s                             1    5700      17.4 0.000477
#>  2 2022-12-03 16:20:00 ~4m                          240    3060      17.4 0.000954
#>  3 2023-07-04 12:03:00 ~1 minute 55ish seconds       60    4920      17.1 0.00143 
#>  4 2022-12-07 17:19:00 ~4 30s                        30    5220      17.1 0.00191 
#>  5 2020-09-04 01:38:00 >1m 50s                      110    6240      17.1 0.00238 
#>  6 2020-06-01 21:04:00 2 minutes                    120    6060      16.8 0.00286 
#>  7 2021-01-22 18:35:00 2m50s                        170    3600      16.7 0.00334 
#>  8 2022-11-29 14:51:00 ~3m                          180    3840      16.4 0.00381 
#>  9 2020-08-31 09:56:00 ~2m50s                       170    3840      16.4 0.00429 
#> 10 2020-07-23 23:17:00 3m06s                        186    4320      16.3 0.00477 
#> # ℹ 2,087 more rows
```
…
``` r
mvscale(of)
#> Warning in mvscale(of): Ignoring non-numeric columns: time, recorded_duration
#> # A tibble: 2,097 × 4
#>    time                recorded_duration      z1     z2
#>    <dttm>              <chr>               <dbl>  <dbl>
#>  1 2017-01-14 00:06:00 3m 16s            -2.20    0.332
#>  2 2017-01-26 14:27:00 ~4m               -0.0431  0.111
#>  3 2017-01-27 23:57:00 2m 1s             -4.27   -3.43 
#>  4 2017-01-30 15:09:00 ~4m                0.345  -0.886
#>  5 2017-01-31 13:27:00 ~3.5m             -1.28   -0.332
#>  6 2017-01-31 15:00:00 ~4m                0       0    
#>  7 2017-02-03 23:13:00 3m 25s            -1.22   -1.11 
#>  8 2017-02-04 22:14:00 3m 34s            -0.966  -0.665
#>  9 2017-02-05 17:19:00 4m 0s             -0.215   0.554
#> 10 2017-02-05 19:00:00 4m 2s             -0.121   0.554
#> # ℹ 2,087 more rows
mvscale(of, cov = NULL)
#> Warning in mvscale(of, cov = NULL): Ignoring non-numeric columns: time, recorded_duration
#> # A tibble: 2,097 × 4
#>    time                recorded_duration duration waiting
#>    <dttm>              <chr>                <dbl>   <dbl>
#>  1 2017-01-14 00:06:00 3m 16s             -1.98     0.338
#>  2 2017-01-26 14:27:00 ~4m                 0        0.113
#>  3 2017-01-27 23:57:00 2m 1s              -5.37    -3.50 
#>  4 2017-01-30 15:09:00 ~4m                 0       -0.902
#>  5 2017-01-31 13:27:00 ~3.5m              -1.35    -0.338
#>  6 2017-01-31 15:00:00 ~4m                 0        0    
#>  7 2017-02-03 23:13:00 3m 25s             -1.58    -1.13 
#>  8 2017-02-04 22:14:00 3m 34s             -1.17    -0.676
#>  9 2017-02-05 17:19:00 4m 0s               0        0.564
#> 10 2017-02-05 19:00:00 4m 2s               0.0902   0.564
#> # ℹ 2,087 more rows
```
