Functions and Data Sets for "That's Weird: Anomaly Detection Using R" by Rob J Hyndman • weird
…
library(weird)
#> ── Attaching packages ────────────────────────────────────── weird 0.0.0.9000 ──
#> ✔ dplyr   1.1.4      ✔ ks      1.14.1
#> ✔ ggplot2 3.4.4
#> ── Conflicts ──────────────────────────────────────────────── weird_conflicts ──
#> ✖ dplyr::filter() masks stats::filter()
#> ✖ dplyr::lag()    masks stats::lag()

Example: Old Faithful Geyser data

The oldfaithful data set contains eruption data from the Old Faithful Geyser in Yellowstone National Park, Wyoming, USA, from 1 January 2015 to 1 October 2021. The data were obtained from the geysertimes.org website. Recordings are incomplete, especially during the winter months when observers may not be present. There also appear to be some recording errors. The data set contains 2261 observations of 3 variables: time giving the time at which each eruption began, duration giving the length of the eruption in seconds, and waiting giving the time to the next eruption in seconds. In the analysis below, we omit the eruption with duration greater than 1 hour as this is likely to be a recording error. Some of the long waiting values are probably due to omitted eruptions, and so we also omit eruptions with waiting greater than 2 hours.

oldfaithful
#> # A tibble: 2,261 × 3
#>    time                duration waiting
#>    <dttm>                 <dbl>   <dbl>
#>  1 2015-01-02 14:53:00      271    5040
#>  2 2015-01-09 23:55:00      247    6060
#>  3 2015-02-07 00:49:00      203    5460
#>  4 2015-02-14 01:09:00      195    5221
#>  5 2015-02-21 01:12:00      210    5401
#>  6 2015-02-28 01:11:00      185    5520
#>  7 2015-03-07 00:50:00      160    5281
#>  8 2015-03-13 21:57:00      226    6000
#>  9 2015-03-13 23:37:00      190    5341
#> 10 2015-03-20 22:26:00      102    3961
#> # ℹ 2,251 more rows
…
Robust multivariate scaling

Some anomaly detection methods require the data to be scaled first, so all observations are on the same scale. However, many scaling methods are not robust to anomalies. The mvscale() function provides a multivariate robust scaling method, that optionally takes account of the relationships betwen variables, and uses robust estimates of center, scale and covariance by default. The centers are removed using medians, the scale function is the IQR, and the covariance matrix is estimated using a robust OGK estimate. The data are scaled using the Cholesky decomposition of the inverse covariance. Then the scaled data are returned. The scaled variables are rotated to be orthogonal, so are renamed as z1, z2, etc. Non-rotated scaling is possible by setting cov = NULL.

mvscale(of)
#> Warning in mvscale(of): Ignoring non-numeric columns: time
#> # A tibble: 2,197 × 3
#>    time                    z1     z2
#>    <dttm>               <dbl>  <dbl>
#>  1 2015-01-02 14:53:00  2.06  -1.47 
#>  2 2015-01-09 23:55:00  0.130  0.801
#>  3 2015-02-07 00:49:00 -1.78  -0.534
#>  4 2015-02-14 01:09:00 -2.04  -1.07 
#>  5 2015-02-21 01:12:00 -1.38  -0.665
#>  6 2015-02-28 01:11:00 -2.76  -0.401
#>  7 2015-03-07 00:50:00 -3.92  -0.932
#>  8 2015-03-13 21:57:00 -0.932  0.668
#>  9 2015-03-13 23:37:00 -2.38  -0.799
#> 10 2015-03-20 22:26:00 -6.09  -3.87 
#> # ℹ 2,187 more rows
mvscale(of, cov = NULL)
#> Warning in mvscale(of, cov = NULL): Ignoring non-numeric columns: time
#> # A tibble: 2,197 × 3
#>    time                duration waiting
#>    <dttm>                 <dbl>   <dbl>
#>  1 2015-01-02 14:53:00    1.61   -1.48 
#>  2 2015-01-09 23:55:00    0.363   0.809
#>  3 2015-02-07 00:49:00   -1.92   -0.540
#>  4 2015-02-14 01:09:00   -2.33   -1.08 
#>  5 2015-02-21 01:12:00   -1.56   -0.672
#>  6 2015-02-28 01:11:00   -2.85   -0.405
#>  7 2015-03-07 00:50:00   -4.15   -0.942
#>  8 2015-03-13 21:57:00   -0.726   0.674
#>  9 2015-03-13 23:37:00   -2.59   -0.807
#> 10 2015-03-20 22:26:00   -7.16   -3.91 
#> # ℹ 2,187 more rows
…
