…
``` r
oldfaithful
#> # A tibble: 2,261 × 3
#>    time                duration waiting
#>    <dttm>                 <dbl>   <dbl>
#>  1 2015-01-02 14:53:00      271    5040
#>  2 2015-01-09 23:55:00      247    6060
#>  3 2015-02-07 00:49:00      203    5460
#>  4 2015-02-14 01:09:00      195    5221
#>  5 2015-02-21 01:12:00      210    5401
#>  6 2015-02-28 01:11:00      185    5520
#>  7 2015-03-07 00:50:00      160    5281
#>  8 2015-03-13 21:57:00      226    6000
#>  9 2015-03-13 23:37:00      190    5341
#> 10 2015-03-20 22:26:00      102    3961
#> # ℹ 2,251 more rows
```
…
The
[`surprisals()`](https://pkg.robjhyndman.com/weird-package/reference/surprisals.md)
function can also compute the probability of obtaining surprisal values
at least as extreme as those observed. In fact, this is the default
behaviour, obtained when `probability = TRUE`.

``` r
of |>
  mutate(
    surprisal = surprisals(cbind(duration, waiting), probability = FALSE),
    prob = surprisals(cbind(duration, waiting))
  ) |>
  arrange(prob)
#> # A tibble: 2,197 × 5
#>    time                duration waiting surprisal     prob
#>    <dttm>                 <dbl>   <dbl>     <dbl>    <dbl>
#>  1 2018-04-25 19:08:00        1    5700      17.9 0.000455
#>  2 2020-06-01 21:04:00      120    6060      17.8 0.000910
#>  3 2021-01-22 18:35:00      170    3600      16.9 0.00137 
#>  4 2020-08-31 09:56:00      170    3840      16.7 0.00182 
#>  5 2015-11-21 20:27:00      150    3420      16.2 0.00228 
#>  6 2017-05-03 06:19:00       90    4740      16.2 0.00273 
#>  7 2020-09-16 14:44:00      160    6120      16.1 0.00319 
#>  8 2020-07-23 23:17:00      186    4320      16.1 0.00364 
#>  9 2019-07-25 06:32:00      300    5280      15.9 0.00410 
#> 10 2020-09-15 18:01:00      160    5880      15.9 0.00455 
#> # ℹ 2,187 more rows
```
…
``` r
mvscale(of)
#> Warning in mvscale(of): Ignoring non-numeric columns: time
#> # A tibble: 2,197 × 3
#>    time                     z1     z2
#>    <dttm>                <dbl>  <dbl>
#>  1 2015-01-02 14:53:00  2.02   -1.33 
#>  2 2015-01-09 23:55:00  0.0758  0.728
#>  3 2015-02-07 00:49:00 -1.64   -0.485
#>  4 2015-02-14 01:09:00 -1.86   -0.968
#>  5 2015-02-21 01:12:00 -1.25   -0.604
#>  6 2015-02-28 01:11:00 -2.57   -0.364
#>  7 2015-03-07 00:50:00 -3.63   -0.847
#>  8 2015-03-13 21:57:00 -0.913   0.606
#>  9 2015-03-13 23:37:00 -2.19   -0.726
#> 10 2015-03-20 22:26:00 -5.50   -3.51 
#> # ℹ 2,187 more rows
mvscale(of, cov = NULL)
#> Warning in mvscale(of, cov = NULL): Ignoring non-numeric columns: time
#> # A tibble: 2,197 × 3
#>    time                duration waiting
#>    <dttm>                 <dbl>   <dbl>
#>  1 2015-01-02 14:53:00    1.40   -1.24 
#>  2 2015-01-09 23:55:00    0.316   0.676
#>  3 2015-02-07 00:49:00   -1.67   -0.451
#>  4 2015-02-14 01:09:00   -2.03   -0.900
#>  5 2015-02-21 01:12:00   -1.35   -0.562
#>  6 2015-02-28 01:11:00   -2.48   -0.338
#>  7 2015-03-07 00:50:00   -3.61   -0.787
#>  8 2015-03-13 21:57:00   -0.631   0.564
#>  9 2015-03-13 23:37:00   -2.25   -0.675
#> 10 2015-03-20 22:26:00   -6.22   -3.27 
#> # ℹ 2,187 more rows
```
…
