…
``` r
oldfaithful
#> # A tibble: 2,261 × 3
#>    time                duration waiting
#>    <dttm>                 <dbl>   <dbl>
#>  1 2015-01-02 14:53:00      271    5040
#>  2 2015-01-09 23:55:00      247    6060
#>  3 2015-02-07 00:49:00      203    5460
#>  4 2015-02-14 01:09:00      195    5221
#>  5 2015-02-21 01:12:00      210    5401
#>  6 2015-02-28 01:11:00      185    5520
#>  7 2015-03-07 00:50:00      160    5281
#>  8 2015-03-13 21:57:00      226    6000
#>  9 2015-03-13 23:37:00      190    5341
#> 10 2015-03-20 22:26:00      102    3961
#> # ℹ 2,251 more rows
```
…
