Cricket batting data for international test players — cricket_batting • weird
…
    Source

    https://www.espncricinfo.com

    Value

Data frame

    Examples

cricket_batting |>
  filter(Innings > 20) |>
  select(Player, Country, Matches, Runs, Average, Hundreds, Fifties, Ducks) |>
  arrange(desc(Average))
#> # A tibble: 1,138 × 8
#>    Player        Country      Matches  Runs Average Hundreds Fifties Ducks
#>    <chr>         <chr>          <int> <int>   <dbl>    <int>   <int> <int>
#>  1 DG Bradman    Australia         52  6996    99.9       29      13     7
#>  2 AC Voges      Australia         20  1485    61.9        5       4     2
#>  3 SPD Smith     Australia         77  7540    61.8       27      31     5
#>  4 RG Pollock    South Africa      23  2256    61.0        7      11     1
#>  5 GA Headley    West Indies       22  2190    60.8       10       5     2
#>  6 M Labuschagne Australia         18  1885    60.8        5      10     1
#>  7 H Sutcliffe   England           54  4555    60.7       16      23     2
#>  8 E Bakewell    England           12  1078    59.9        4       7     0
#>  9 E Paynter     England           20  1540    59.2        4       7     3
#> 10 KF Barrington England           82  6806    58.7       20      35     5
#> # ℹ 1,128 more rows
…
