Density scores — density_scores • weird
…
of <- oldfaithful |>
  filter(duration < 7000, waiting < 7000)
f_kde <- kde(of[, 2:3], H = kde_bandwidth(of[, 2:3]))
of |>
  mutate(
    fscores = density_scores(f_kde),
    loo_fscores = density_scores(f_kde, loo = TRUE)
  )
#> # A tibble: 2,189 × 5
#>    time                duration waiting fscores loo_fscores
#>    <dttm>                 <dbl>   <dbl>   <dbl>       <dbl>
#>  1 2015-01-02 14:53:00      271    5040    14.6        14.9
#>  2 2015-01-09 23:55:00      247    6060    11.1        11.1
#>  3 2015-02-07 00:49:00      203    5460    13.0        13.0
#>  4 2015-02-14 01:09:00      195    5221    13.7        13.8
#>  5 2015-02-21 01:12:00      210    5401    12.5        12.5
#>  6 2015-02-28 01:11:00      185    5520    13.5        13.6
#>  7 2015-03-07 00:50:00      160    5281    15.7        17.0
#>  8 2015-03-13 21:57:00      226    6000    11.9        11.9
#>  9 2015-03-13 23:37:00      190    5341    13.6        13.7
#> 10 2015-03-20 22:26:00      102    3961    13.4        13.5
#> # ℹ 2,179 more rows
…
