Gun ownership and homicide rates by country — gun_deaths • weird
…
region
World region according to Our World in Data

    Source

    World Population Review https://worldpopulationreview.com/country-rankings/gun-ownership-by-country and https://ourworldindata.org/grapher/homicide-rates-from-firearms

    Value

    Data frame

    Examples

gun_deaths
#> # A tibble: 77 × 4
#>    country             region        gun_ownership_rate homicide_rate
#>    <chr>               <chr>                      <dbl>         <dbl>
#>  1 Albania             Europe                      12          1.52  
#>  2 Algeria             Africa                       2.1        0.127 
#>  3 Antigua and Barbuda North America                5.4       11.1   
#>  4 Argentina           South America                7.4        2.81  
#>  5 Armenia             Asia                         6.1        0.618 
#>  6 Australia           Oceania                     14.5        0.0930
#>  7 Austria             Europe                      30          0.182 
#>  8 Azerbaijan          Asia                         3.6        0.181 
#>  9 Bahamas             North America               18.8       27.4   
#> 10 Barbados            North America                3.5        8.21  
#> # ℹ 67 more rows
…
