Surprisals computed from a model — surprisals.lm • weird
…
# surprisals computed from GAM
of <- oldfaithful |>
  filter(duration > 1, duration < 7200, waiting < 7200)
gam_of <- mgcv::gam(waiting ~ s(duration), data = of)
of |>
  mutate(fscore = surprisals(gam_of))
#> # A tibble: 2,196 × 4
#>    time                duration waiting fscore
#>    <dttm>                 <dbl>   <dbl>  <dbl>
#>  1 2015-01-02 14:53:00      271    5040  0.119
#>  2 2015-01-09 23:55:00      247    6060  0.402
#>  3 2015-02-07 00:49:00      203    5460  0.890
#>  4 2015-02-14 01:09:00      195    5221  0.717
#>  5 2015-02-21 01:12:00      210    5401  0.787
#>  6 2015-02-28 01:11:00      185    5520  0.948
#>  7 2015-03-07 00:50:00      160    5281  0.817
#>  8 2015-03-13 21:57:00      226    6000  0.361
#>  9 2015-03-13 23:37:00      190    5341  0.862
#> 10 2015-03-20 22:26:00      102    3961  0.960
#> # ℹ 2,186 more rows
…
