Surprisals and surprisal probabilities computed from data — surprisals.numeric • weird
…
    Author

    Rob J Hyndman

    Examples

# Univariate data
tibble(
  y = c(5, rnorm(49)),
  p_kde = surprisals_prob(y, loo = TRUE),
  p_normal = surprisals_prob(y, distribution = dist_normal()),
  p_zscore = 2 * (1 - pnorm(abs(y)))
)
#> # A tibble: 50 × 4
#>         y p_kde    p_normal    p_zscore
#>     <dbl> <dbl>       <dbl>       <dbl>
#>  1  5     0     0.000000573 0.000000573
#>  2  0.850 0.490 0.395       0.395      
#>  3 -0.925 0.376 0.355       0.355      
#>  4  0.894 0.471 0.372       0.372      
#>  5 -0.941 0.368 0.347       0.347      
#>  6  0.539 0.637 0.590       0.590      
#>  7 -0.182 0.821 0.856       0.856      
#>  8  0.892 0.472 0.373       0.373      
#>  9  1.33  0.307 0.184       0.184      
#> 10 -0.103 0.854 0.918       0.918      
#> # ℹ 40 more rows
tibble(
  y = n01$v1,
  prob1 = surprisals_prob(y),
  prob2 = surprisals_prob(y, loo = TRUE),
  prob3 = surprisals_prob(y, distribution = dist_normal()),
  prob4 = surprisals_prob(y, distribution = dist_normal(), approximation = "gpd")
) |>
  arrange(prob1)
#> # A tibble: 1,000 × 5
#>        y   prob1    prob2    prob3    prob4
#>    <dbl>   <dbl>    <dbl>    <dbl>    <dbl>
#>  1  3.81 0.00150 0.000230 0.000139 0.000135
#>  2  3.06 0.00258 0.00189  0.00225  0.00261 
#>  3 -3.01 0.00509 0.00427  0.00263  0.00308 
#>  4 -3.00 0.00528 0.00441  0.00273  0.00320 
#>  5 -2.94 0.00620 0.00529  0.00328  0.00389 
#>  6 -2.89 0.00712 0.00622  0.00387  0.00461 
#>  7  2.68 0.00927 0.00835  0.00746  0.00913 
#>  8  2.65 0.0102  0.00926  0.00807  0.00991 
#>  9 -2.60 0.0163  0.0152   0.00943  0.0116  
#> 10 -2.59 0.0164  0.0154   0.00953  0.0118  
#> # ℹ 990 more rows
# Bivariate data
tibble(
  x = rnorm(50),
  y = c(5, rnorm(49)),
  prob = surprisals_prob(cbind(x, y), approximation = "gpd")
)
#> # A tibble: 50 × 3
#>           x      y      prob
#>       <dbl>  <dbl>     <dbl>
#>  1 -0.00475  5     0.0000213
#>  2 -1.56    -0.393 0.1      
#>  3  0.700    0.165 0.1      
#>  4  0.301   -0.274 0.1      
#>  5 -1.66     0.476 0.1      
#>  6 -0.491    0.731 0.1      
#>  7 -0.360   -0.736 0.1      
#>  8  1.67     1.30  0.1      
#>  9  0.941    0.420 0.1      
#> 10  1.62     1.51  0.1      
#> # ℹ 40 more rows
oldfaithful |>
  mutate(
    s = surprisals(cbind(duration, waiting), loo = TRUE),
    p = surprisals_prob(cbind(duration, waiting), loo = TRUE, approximation = "gpd")
  ) |>
  arrange(p)
#> # A tibble: 2,097 × 6
#>    time                recorded_duration       duration waiting     s         p
#>    <dttm>              <chr>                      <dbl>   <dbl> <dbl>     <dbl>
#>  1 2018-04-25 19:08:00 1s                             1    5700 Inf   0        
#>  2 2020-06-01 21:04:00 2 minutes                    120    6060 Inf   0        
#>  3 2022-12-03 16:20:00 ~4m                          240    3060 Inf   0        
#>  4 2022-12-07 17:19:00 ~4 30s                        30    5220 Inf   0        
#>  5 2023-07-04 12:03:00 ~1 minute 55ish seconds       60    4920 Inf   0        
#>  6 2020-09-04 01:38:00 >1m 50s                      110    6240  22.7 0.0000499
#>  7 2018-09-29 22:10:00 ~4m01s                       241    4500  18.4 0.00113  
#>  8 2022-09-08 05:13:00 5 min                        300    5280  18.3 0.00119  
#>  9 2021-01-22 18:35:00 2m50s                        170    3600  17.6 0.00210  
#> 10 2018-07-18 14:00:00 ~1m46s                       106    3000  17.6 0.00220  
#> # ℹ 2,087 more rows
…
