Surprisal probabilities — surprisal_prob • weird
…
Empirically as the proportion of observations with greater surprisal values.
This option is used when GPD = FALSE and no distribution is explicitly
provided. This is also insensitive to the distribution used in computing the
surprisal values.

    Examples

# Univariate data
tibble(
  y = c(5, rnorm(49)),
  p = surprisal_prob(y)
)
#> # A tibble: 50 × 2
#>         y      p
#>     <dbl>  <dbl>
#>  1  5     0.0200
#>  2 -1.54  0.1   
#>  3 -1.39  0.16  
#>  4 -0.415 0.62  
#>  5  0.807 0.54  
#>  6  1.19  0.34  
#>  7 -0.999 0.32  
#>  8  0.648 0.66  
#>  9  1.23  0.3   
#> 10 -1.33  0.2   
#> # ℹ 40 more rows
tibble(
  y = n01$v1,
  prob1 = surprisal_prob(y),
  prob2 = surprisal_prob(y, GPD = TRUE),
  prob3 = surprisal_prob(y, dist_normal()),
  prob4 = surprisal_prob(y, dist_normal(), GPD = TRUE)
) |>
  arrange(prob1)
#> # A tibble: 1,000 × 5
#>        y   prob1    prob2    prob3    prob4
#>    <dbl>   <dbl>    <dbl>    <dbl>    <dbl>
#>  1  3.81 0.00100 0.000113 0.000139 0.000135
#>  2  3.06 0.00200 0.00193  0.00225  0.00261 
#>  3 -3.01 0.00300 0.00362  0.00263  0.00308 
#>  4 -3.00 0.00400 0.00376  0.00273  0.00320 
#>  5 -2.94 0.00500 0.00456  0.00328  0.00389 
#>  6 -2.89 0.00600 0.00538  0.00387  0.00461 
#>  7  2.68 0.00700 0.00809  0.00746  0.00913 
#>  8  2.65 0.00800 0.00886  0.00807  0.00991 
#>  9 -2.60 0.00900 0.0128   0.00943  0.0116  
#> 10 -2.59 0.0100  0.0130   0.00953  0.0118  
#> # ℹ 990 more rows
# Bivariate data
tibble(
  x = rnorm(50),
  y = c(5, rnorm(49)),
  lookout = lookout_prob(cbind(x,y))
)
#> # A tibble: 50 × 3
#>         x      y lookout
#>     <dbl>  <dbl>   <dbl>
#>  1  0.429  5       0    
#>  2 -1.91  -0.478   0.989
#>  3  1.55  -0.937   1    
#>  4  0.867  0.209   1    
#>  5  1.49  -0.904   1    
#>  6  1.21   1.18    1    
#>  7  0.604 -1.32    1    
#>  8  0.568 -1.78    1    
#>  9  1.09   0.980   1    
#> 10  0.740  0.127   1    
#> # ℹ 40 more rows
# Using a regression model
of <- oldfaithful |> filter(duration < 7200, waiting < 7200)
fit_of <- lm(waiting ~ duration, data = of)
of |>
  mutate(p = surprisal_prob(fit_of)) |>
  arrange(p)
#> # A tibble: 2,197 × 4
#>    time                duration waiting        p
#>    <dttm>                 <dbl>   <dbl>    <dbl>
#>  1 2018-04-25 19:08:00        1    5700 0.000455
#>  2 2020-06-01 21:04:00      120    6060 0.000910
#>  3 2021-08-13 22:19:23      210    6971 0.00137 
#>  4 2020-10-15 17:11:00      220    7080 0.00182 
#>  5 2016-11-11 14:23:00      180    6480 0.00228 
#>  6 2021-07-26 18:35:39      192    6618 0.00273 
#>  7 2017-02-25 00:53:00      201    6720 0.00319 
#>  8 2015-06-17 23:06:00      210    6780 0.00364 
#>  9 2021-05-21 23:21:09      222    6891 0.00410 
#> 10 2020-09-16 14:44:00      160    6120 0.00455 
#> # ℹ 2,187 more rows
…
