…
## Author

Rob J Hyndman

## Examples

``` r
# surprisals computed from bivariate data set
oldfaithful |>
  mutate(
    loo_fscores = surprisals_prob(cbind(duration, waiting), loo = TRUE)
  )
#> # A tibble: 2,097 × 5
#>    time                recorded_duration duration waiting loo_fscores
#>    <dttm>              <chr>                <dbl>   <dbl>       <dbl>
#>  1 2017-01-14 00:06:00 3m 16s                 196    5940      0.0735
#>  2 2017-01-26 14:27:00 ~4m                    240    5820      0.1   
#>  3 2017-01-27 23:57:00 2m 1s                  121    3900      0.1   
#>  4 2017-01-30 15:09:00 ~4m                    240    5280      0.1   
#>  5 2017-01-31 13:27:00 ~3.5m                  210    5580      0.1   
#>  6 2017-01-31 15:00:00 ~4m                    240    5760      0.1   
#>  7 2017-02-03 23:13:00 3m 25s                 205    5160      0.1   
#>  8 2017-02-04 22:14:00 3m 34s                 214    5400      0.1   
#>  9 2017-02-05 17:19:00 4m 0s                  240    6060      0.1   
#> 10 2017-02-05 19:00:00 4m 2s                  242    6060      0.1   
#> # ℹ 2,087 more rows
```
