Surprisals — surprisals • weird
…
    dist_kde

    Author

    Rob J Hyndman

    Examples

# surprisals computed from bivariate data set
oldfaithful |>
  filter(duration < 7000, waiting < 7000) |>
  mutate(
    loo_fscores = surprisals(cbind(duration, waiting), loo = TRUE)
  )
#> # A tibble: 2,189 × 4
#>    time                duration waiting loo_fscores
#>    <dttm>                 <dbl>   <dbl>       <dbl>
#>  1 2015-01-02 14:53:00      271    5040      0.0918
#>  2 2015-01-09 23:55:00      247    6060      0.718 
#>  3 2015-02-07 00:49:00      203    5460      0.194 
#>  4 2015-02-14 01:09:00      195    5221      0.157 
#>  5 2015-02-21 01:12:00      210    5401      0.283 
#>  6 2015-02-28 01:11:00      185    5520      0.220 
#>  7 2015-03-07 00:50:00      160    5281      0.249 
#>  8 2015-03-13 21:57:00      226    6000      0.395 
#>  9 2015-03-13 23:37:00      190    5341      0.139 
#> 10 2015-03-20 22:26:00      102    3961      0.0955
#> # ℹ 2,179 more rows
# Univariate data
tibble(
  y = c(5, rnorm(49)),
  p_kde = surprisals(y, loo = TRUE),
  p_normal = surprisals(y, distribution = dist_normal()),
  p_zscore = 2 * (1 - pnorm(abs(y)))
)
#> # A tibble: 50 × 4
#>         y    p_kde    p_normal    p_zscore
#>     <dbl>    <dbl>       <dbl>       <dbl>
#>  1  5     0.000292 0.000000573 0.000000573
#>  2 -0.695 0.567    0.487       0.487      
#>  3  0.540 0.706    0.590       0.590      
#>  4 -0.944 0.448    0.345       0.345      
#>  5  1.40  0.330    0.162       0.162      
#>  6 -0.982 0.431    0.326       0.326      
#>  7  1.32  0.359    0.188       0.188      
#>  8 -0.231 0.804    0.817       0.817      
#>  9 -0.824 0.504    0.410       0.410      
#> 10 -0.480 0.677    0.631       0.631      
#> # ℹ 40 more rows
tibble(
  y = n01$v1,
  prob1 = surprisals(y, loo = TRUE),
  prob2 = surprisals(y, approximation = "gpd"),
  prob3 = surprisals(y, distribution = dist_normal()),
  prob4 = surprisals(y, distribution = dist_normal(), approximation = "gpd")
) |>
  arrange(prob1)
#> # A tibble: 1,000 × 5
#>        y    prob1    prob2    prob3    prob4
#>    <dbl>    <dbl>    <dbl>    <dbl>    <dbl>
#>  1  3.81 0.000675 0.000113 0.000139 0.000135
#>  2  3.06 0.00694  0.00194  0.00225  0.00261 
#>  3 -3.01 0.0109   0.00362  0.00263  0.00308 
#>  4 -3.00 0.0112   0.00376  0.00273  0.00320 
#>  5 -2.94 0.0129   0.00456  0.00328  0.00389 
#>  6 -2.89 0.0146   0.00538  0.00387  0.00461 
#>  7  2.68 0.0199   0.00810  0.00746  0.00913 
#>  8  2.65 0.0214   0.00887  0.00807  0.00991 
#>  9 -2.60 0.0283   0.0128   0.00943  0.0116  
#> 10 -2.59 0.0285   0.0130   0.00953  0.0118  
#> # ℹ 990 more rows
# Bivariate data
tibble(
  x = rnorm(50),
  y = c(5, rnorm(49)),
  prob = surprisals(cbind(x, y)),
  lookout = lookout_prob(cbind(x, y))
)
#> # A tibble: 50 × 4
#>          x      y  prob lookout
#>      <dbl>  <dbl> <dbl>   <dbl>
#>  1  0.460   5      0.02       0
#>  2 -0.925  -0.819  0.4        1
#>  3  0.181   0.189  0.9        1
#>  4  0.777   0.204  0.84       1
#>  5 -0.522  -0.367  0.62       1
#>  6 -0.191  -0.985  0.56       1
#>  7  0.535   0.293  0.88       1
#>  8 -0.292  -0.369  0.78       1
#>  9  0.0992 -0.714  0.7        1
#> 10  1.60    0.107  0.42       1
#> # ℹ 40 more rows
…
