…
# surprisals computed from GAM
of <- oldfaithful |>
  filter(duration > 1, duration < 7200, waiting < 7200)
gam_of <- mgcv::gam(waiting ~ s(duration), data = of)
of |>
  mutate(fscore = surprisals(gam_of))
#> # A tibble: 2,096 × 5
#>    time                recorded_duration duration waiting fscore
#>    <dttm>              <chr>                <dbl>   <dbl>  <dbl>
#>  1 2017-01-14 00:06:00 3m 16s                 196    5940  0.719
#>  2 2017-01-26 14:27:00 ~4m                    240    5820  0.929
#>  3 2017-01-27 23:57:00 2m 1s                  121    3900  0.740
#>  4 2017-01-30 15:09:00 ~4m                    240    5280  0.109
#>  5 2017-01-31 13:27:00 ~3.5m                  210    5580  0.942
#>  6 2017-01-31 15:00:00 ~4m                    240    5760  0.921
#>  7 2017-02-03 23:13:00 3m 25s                 205    5160  0.579
#>  8 2017-02-04 22:14:00 3m 34s                 214    5400  0.724
#>  9 2017-02-05 17:19:00 4m 0s                  240    6060  0.401
#> 10 2017-02-05 19:00:00 4m 2s                  242    6060  0.429
#> # ℹ 2,086 more rows
```
