…
The `oldfaithful` data set contains eruption data from the Old Faithful
Geyser in Yellowstone National Park, Wyoming, USA, from 2017 to 2023.
The data were obtained from the
[geysertimes.org](https://geysertimes.org) website. Recordings are
incomplete, especially during the winter months when observers may not
be present. There also appear to be some recording errors. The data set
contains 2097 observations of 3 variables: `time` giving the time at
which each eruption began, `recorded_duration` giving the length of the
eruption as recorded, `duration` giving the length of the eruption in
seconds, and `waiting` giving the time to the next eruption in seconds.

``` r

oldfaithful
#> # A tibble: 2,097 × 4
#>    time                recorded_duration duration waiting
#>    <dttm>              <chr>                <dbl>   <dbl>
#>  1 2017-01-14 00:06:00 3m 16s                 196    5940
#>  2 2017-01-26 14:27:00 ~4m                    240    5820
#>  3 2017-01-27 23:57:00 2m 1s                  121    3900
#>  4 2017-01-30 15:09:00 ~4m                    240    5280
#>  5 2017-01-31 13:27:00 ~3.5m                  210    5580
#>  6 2017-01-31 15:00:00 ~4m                    240    5760
#>  7 2017-02-03 23:13:00 3m 25s                 205    5160
#>  8 2017-02-04 22:14:00 3m 34s                 214    5400
#>  9 2017-02-05 17:19:00 4m 0s                  240    6060
#> 10 2017-02-05 19:00:00 4m 2s                  242    6060
#> # ℹ 2,087 more rows
```
…
``` r

mvscale(oldfaithful)
#> Warning in mvscale(oldfaithful): Ignoring non-numeric columns: time,
#> recorded_duration
#> # A tibble: 2,097 × 4
#>    time                recorded_duration      z1     z2
#>    <dttm>              <chr>               <dbl>  <dbl>
#>  1 2017-01-14 00:06:00 3m 16s            -2.34    0.394
#>  2 2017-01-26 14:27:00 ~4m               -0.0524  0.131
#>  3 2017-01-27 23:57:00 2m 1s             -4.28   -4.07 
#>  4 2017-01-30 15:09:00 ~4m                0.419  -1.05 
#>  5 2017-01-31 13:27:00 ~3.5m             -1.33   -0.394
#>  6 2017-01-31 15:00:00 ~4m                0       0    
#>  7 2017-02-03 23:13:00 3m 25s            -1.21   -1.31 
#>  8 2017-02-04 22:14:00 3m 34s            -0.976  -0.787
#>  9 2017-02-05 17:19:00 4m 0s             -0.262   0.656
#> 10 2017-02-05 19:00:00 4m 2s             -0.163   0.656
#> # ℹ 2,087 more rows
mvscale(oldfaithful, cov = NULL)
#> Warning in mvscale(oldfaithful, cov = NULL): Ignoring non-numeric columns: time,
#> recorded_duration
#> # A tibble: 2,097 × 4
#>    time                recorded_duration duration waiting
#>    <dttm>              <chr>                <dbl>   <dbl>
#>  1 2017-01-14 00:06:00 3m 16s             -1.98     0.338
#>  2 2017-01-26 14:27:00 ~4m                 0        0.113
#>  3 2017-01-27 23:57:00 2m 1s              -5.37    -3.50 
#>  4 2017-01-30 15:09:00 ~4m                 0       -0.902
#>  5 2017-01-31 13:27:00 ~3.5m              -1.35    -0.338
#>  6 2017-01-31 15:00:00 ~4m                 0        0    
#>  7 2017-02-03 23:13:00 3m 25s             -1.58    -1.13 
#>  8 2017-02-04 22:14:00 3m 34s             -1.17    -0.676
#>  9 2017-02-05 17:19:00 4m 0s               0        0.564
#> 10 2017-02-05 19:00:00 4m 2s               0.0902   0.564
#> # ℹ 2,087 more rows
```
